\relax 
\catcode`"\active
\select@language{brazil}
\@writefile{toc}{\select@language{brazil}}
\@writefile{lof}{\select@language{brazil}}
\@writefile{lot}{\select@language{brazil}}
\@writefile{toc}{\contentsline {section}{\numberline {1}Introduction}{1}}
\newlabel{introduction}{{1}{1}}
\@writefile{toc}{\contentsline {section}{\numberline {2}Motivating Example}{1}}
\newlabel{introduction}{{2}{1}}
\@writefile{toc}{\contentsline {section}{\numberline {3}Using XQuery for Querying AspectJ Programs}{1}}
\newlabel{xquery}{{3}{1}}
\@writefile{toc}{\contentsline {subsection}{\numberline {3.1}Selecting AJ Grammar Elements}{1}}
\newlabel{xquery:selecting}{{3.1}{1}}
\@writefile{toc}{\contentsline {subsection}{\numberline {3.2}Mapping Selected AJ Grammar Elements to XML Schema}{2}}
\newlabel{xquery:selecting}{{3.2}{2}}
\@writefile{toc}{\contentsline {subsection}{\numberline {3.3}Implementing AJ to XML \emph  {on-the-fly} Converters}{2}}
\newlabel{xquery:selecting}{{3.3}{2}}
\@writefile{toc}{\contentsline {subsection}{\numberline {3.4}Writing and Posing Queries}{2}}
\newlabel{xquery:selecting}{{3.4}{2}}
\@writefile{toc}{\contentsline {section}{\numberline {4}Experiments}{2}}
\newlabel{experiments}{{4}{2}}
\@writefile{toc}{\contentsline {section}{\numberline {5}Related Work}{2}}
\newlabel{relatedWork}{{5}{2}}
\@writefile{toc}{\contentsline {section}{\numberline {6}Conclusion}{2}}
\newlabel{conclusion}{{6}{2}}
